{
    "KPlugin": {
        "Description": "Monitors cached remote files for changes",
        "Description[ar]": "يُراقب الملفات البعيدة المخبّأة بحثًا عن تغييرات",
        "Description[az]": "Məsafədəki komputerdə keşlənən faylların dəyşikliklərinin izlənməsi",
        "Description[be]": "Асочвае змены кэшаваных аддаленых файлаў",
        "Description[ca@valencia]": "Controla els canvis als fitxers remots en la memòria cau",
        "Description[ca]": "Controla els canvis als fitxers remots en la memòria cau",
        "Description[cs]": "Monitoruje změny vzdálených souborů v mezipaměti",
        "Description[da]": "Overvåger cachede eksterne filer for ændringer",
        "Description[de]": "Überwacht entfernte Dateien auf Änderungen",
        "Description[el]": "Ελέγχει απομακρυσμένα αρχεία στην προσωρινή μνήμη για αλλαγές",
        "Description[en_GB]": "Monitors cached remote files for changes",
        "Description[es]": "Monitoriza archivos remotos en caché en busca de cambios",
        "Description[et]": "Puhverdatud kaugfailide muutuste jälgimine",
        "Description[eu]": "cacheratutako urruneko fitxateak aldatzen diren zaintzen du",
        "Description[fi]": "Valvoo etätiedostojen muutoksia välimuistissa",
        "Description[fr]": "Surveille les modifications des fichiers à distance en cache",
        "Description[gl]": "Monitorizar os cambios en ficheiros remotos gardados na caché",
        "Description[hu]": "Gyorsítótárazott távoli fájlok változásainak figyelése",
        "Description[ia]": "Monitora files remote ponite in cache per modificationes",
        "Description[id]": "Pantauan file jarak jauh yang tersinggah atas perubahan",
        "Description[it]": "Sorveglia i cambiamenti nei file remoti in cache",
        "Description[ko]": "캐시에 저장된 원격 파일의 변경 사항 감시",
        "Description[lt]": "Stebi nuotolinių podėliuotų failų pakeitimus",
        "Description[ml]": "മാറ്റങ്ങൾക്കായി കാഷെ ചെയ്ത വിദൂര ഫയലുകൾ നിരീക്ഷിക്കുന്നു",
        "Description[my]": "ကတ်ချ်သွင်းထားသော အဝေးဖိုင်လ်များ ပြောင်းလဲမှုကို စောင့်ကြည့်မည်",
        "Description[nl]": "Bewaakt in de cache opgeslagen bestanden op afstand op wijzigingen",
        "Description[nn]": "Overvakar nettverksfiler for endringar",
        "Description[pl]": "Monitoruje zmiany w zdalnych plikach przechowywanych w pamięci",
        "Description[pt]": "Vigia as modificações dos ficheiros remotos em 'cache'",
        "Description[pt_BR]": "Monitora por alterações nos arquivos remotos em cache",
        "Description[ro]": "Monitorizează fișiere prestocate distante pentru modificări",
        "Description[ru]": "Отслеживание изменений кэшированных файлов с удалённых компьютеров",
        "Description[sk]": "Vzdialené súbory uložené do cache na spracovanie",
        "Description[sl]": "Nadzira oddaljene predpomnjene datoteke za spremembami",
        "Description[sr@ijekavian]": "Надзире измене над кешираним удаљеним фајловима",
        "Description[sr@ijekavianlatin]": "Nadzire izmene nad keširanim udaljenim fajlovima",
        "Description[sr@latin]": "Nadzire izmene nad keširanim udaljenim fajlovima",
        "Description[sr]": "Надзире измене над кешираним удаљеним фајловима",
        "Description[sv]": "Övervakar om fjärrfiler i cache ändras",
        "Description[ta]": "தற்காலிக நினைவிடத்தில் உள்ள தொலை கோப்புகளை மாற்றங்களுக்காக கண்காணிக்கும்",
        "Description[tg]": "Файлҳои дурдастро нисбат ба тағйирот дар зерҳофиза назорат мекунад",
        "Description[tr]": "İzleyiciler uzak dosyaları değişiklikler için ön belleğe aldı",
        "Description[uk]": "Стежить за змінами у кешованих віддалених файлах",
        "Description[vi]": "Giám sát thay đổi ở các tệp ở xa được lưu sẵn",
        "Description[x-test]": "xxMonitors cached remote files for changesxx",
        "Description[zh_CN]": "监视已缓存的远程文件更改状况",
        "Description[zh_TW]": "監視已快取的遠端檔案變更",
        "Name": "KIOExec Daemon",
        "Name[ar]": "عفريت KIOExec",
        "Name[az]": "KIOExec Xidməti",
        "Name[be]": "Дэман KIOExec",
        "Name[ca@valencia]": "Dimoni KIOExec",
        "Name[ca]": "Dimoni KIOExec",
        "Name[cs]": "Démon KIOExec",
        "Name[da]": "KIOExec-dæmon",
        "Name[de]": "KIOExec-Dienst",
        "Name[el]": "KIOExec Daemon",
        "Name[en_GB]": "KIOExec Daemon",
        "Name[es]": "Demonio KIOExec",
        "Name[et]": "KIOExec deemon",
        "Name[eu]": "KIOExec daimona",
        "Name[fi]": "KIOExec-palvelu",
        "Name[fr]": "Démon KIOExec",
        "Name[gl]": "Servizo de KIOExec",
        "Name[hu]": "KIOExec démon",
        "Name[ia]": "Demon de KIOExec",
        "Name[id]": "KIOExec Daemon",
        "Name[it]": "Demone KIOExec",
        "Name[ko]": "KIOExec 데몬",
        "Name[lt]": "KIOExec tarnyba",
        "Name[ml]": "KIOExec ഡീമൺ",
        "Name[my]": "KIOExec နောက်ကွယ်ဆောင်ရွက်မှု",
        "Name[nl]": "KIOExec Daemon",
        "Name[nn]": "KIOExec-teneste",
        "Name[pl]": "Usługa KIOExec",
        "Name[pt]": "Servidor do KIOExec",
        "Name[pt_BR]": "Daemon KIOExec",
        "Name[ro]": "Demon KIOExec",
        "Name[ru]": "Служба KIOExec",
        "Name[sk]": "Démon KIOExec",
        "Name[sl]": "Ozadnji program KIOExec",
        "Name[sr@ijekavian]": "Демон К‑У/И‑извршавача",
        "Name[sr@ijekavianlatin]": "Demon K‑U/I‑izvršavača",
        "Name[sr@latin]": "Demon K‑U/I‑izvršavača",
        "Name[sr]": "Демон К‑У/И‑извршавача",
        "Name[sv]": "Kio-kördemon",
        "Name[ta]": "KIOExec பின்னணி சேவை",
        "Name[tg]": "Раванди дохилии KIOExec",
        "Name[tr]": "KIOExec artalan işlemi",
        "Name[uk]": "Фонова служба KIOExec",
        "Name[vi]": "Trình nền KIOExec",
        "Name[x-test]": "xxKIOExec Daemonxx",
        "Name[zh_CN]": "KIOExec 守护程序",
        "Name[zh_TW]": "KIOExec 守護程式",
        "ServiceTypes": [
            "KDEDModule"
        ]
    },
    "X-KDE-DBus-ServiceName": "org.kde.kioexecd"
}
